__constant char * const CHARSET = (char *) 59392
__constant struct MOS6526_CIA * const CIA2 = (struct MOS6526_CIA *) 56576
__constant const char PAGE1 = (unsigned int)SCREEN1>>6&$f0|(unsigned int)CHARSET>>$a&$e
__constant const char PAGE2 = (unsigned int)SCREEN2>>6&$f0|(unsigned int)CHARSET>>$a&$e
__constant char RADIX::BINARY = 2
__constant char RADIX::DECIMAL = $a
__constant char RADIX::HEXADECIMAL = $10
__constant char RADIX::OCTAL = 8
__constant char * const SCREEN1 = (char *) 57344
__constant char * const SCREEN2 = (char *) 58368
unsigned int Ticks
unsigned int Ticks#0 // Ticks zp[2]:8 101.0
unsigned int Ticks#1 // Ticks_1 zp[2]:2 202.0
__constant char * const VICII_MEMORY = (char *) 53272
void __start()
__constant const char bittab[] = { 1, 2, 4, 8, $10, $20, $40, $80 }
void doplasma(char *scrn)
char doplasma::$1 // reg byte a 200002.0
char doplasma::$3 // reg byte a 200002.0
char doplasma::$6 // reg byte a 2000002.0
char doplasma::c1A
char doplasma::c1B
char doplasma::c1a
char doplasma::c1a#2 // c1a zp[1]:20 66667.33333333333
char doplasma::c1a#3 // c1a zp[1]:20 75000.75
char doplasma::c1b
char doplasma::c1b#2 // c1b zp[1]:10 100001.0
char doplasma::c1b#3 // c1b zp[1]:10 60000.600000000006
char doplasma::c2A
__constant char doplasma::c2A#0 = 0 // c2A
char doplasma::c2B
__constant char doplasma::c2B#0 = 0 // c2B
char doplasma::c2a
char doplasma::c2a#2 // c2a zp[1]:21 66667.33333333333
char doplasma::c2a#3 // c2a zp[1]:21 75000.75
char doplasma::c2b
char doplasma::c2b#2 // c2b zp[1]:19 100001.0
char doplasma::c2b#3 // c2b zp[1]:19 60000.600000000006
char doplasma::i
char doplasma::i#2 // i zp[1]:16 200002.0
char doplasma::i#3 // i zp[1]:16 66667.33333333333
char doplasma::ii
char doplasma::ii#2 // ii zp[1]:13 200002.0
char doplasma::ii#3 // ii zp[1]:13 66667.33333333333
char doplasma::j
char doplasma::j#2 // reg byte y 2000002.0
char doplasma::j#3 // reg byte y 1250001.25
char doplasma::jj
char doplasma::jj#2 // reg byte x 200002.0
char doplasma::jj#3 // reg byte x 162500.5
char *doplasma::scrn
char *doplasma::scrn#0 // scrn zp[2]:11 100001.0
char *doplasma::scrn#13 // scrn zp[2]:11 6666.733333333334
char *doplasma::scrn#6 // scrn zp[2]:11 185714.85714285713
void end()
__loadstore volatile unsigned int last_time // zp[2]:24 17.652173913043477
int main()
char main::block
char main::block#1 // block zp[1]:26 2.5384615384615383
unsigned int main::count
unsigned int main::count#1 // count zp[2]:22 202.0
unsigned int main::count#2 // count zp[2]:22 43.285714285714285
int main::return
char main::tmp
char main::tmp#1 // reg byte a 22.0
char main::v
char main::v#1 // v zp[1]:27 2.4444444444444446
void makechar()
char *makechar::$10 // zp[2]:17 20002.0
unsigned int makechar::$3 // zp[2]:8 200002.0
char makechar::$4 // zp[1]:10 200002.0
unsigned int makechar::$7 // zp[2]:17 20002.0
unsigned int makechar::$8 // zp[2]:17 20002.0
char makechar::$9 // reg byte x 2002.0
char makechar::b
char makechar::b#2 // reg byte y 200002.0
char makechar::b#3 // reg byte y 28182.181818181816
char makechar::b#7 // reg byte y 150001.5
unsigned int makechar::c
unsigned int makechar::c#2 // c zp[2]:11 2002.0
unsigned int makechar::c#3 // c zp[2]:11 591.090909090909
char makechar::i
char makechar::i#2 // i zp[1]:13 20002.0
char makechar::i#3 // i zp[1]:13 2353.176470588235
char makechar::ii
char makechar::ii#2 // reg byte x 200002.0
char makechar::ii#3 // reg byte x 40000.4
char makechar::s
char makechar::s#1 // s zp[1]:20 5315.894736842105
void print_char(char ch)
char print_char::ch
char print_char::ch#0 // reg byte a 20002.0
char print_char::ch#1 // reg byte a 20002.0
char print_char::ch#2 // reg byte a 120003.0
char *print_char_cursor
char *print_char_cursor#26 // print_char_cursor zp[2]:17 110002.0
char *print_char_cursor#27 // print_char_cursor zp[2]:17 7117.882352941177
char *print_char_cursor#37 // print_char_cursor zp[2]:17 3667.333333333333
__constant const char print_hextab[] = "0123456789abcdef"z
char *print_line_cursor
char *print_line_cursor#0 // print_line_cursor zp[2]:22 15001.5
char *print_line_cursor#9 // print_line_cursor zp[2]:22 20002.0
void print_ln()
char *print_screen
__constant char *print_screen#0 = (char *) 1024 // print_screen
void print_uchar(char b)
char print_uchar::$0 // reg byte a 20002.0
char print_uchar::$2 // reg byte x 20002.0
char print_uchar::b
char print_uchar::b#0 // reg byte x 2002.0
char print_uchar::b#1 // reg byte x 2002.0
char print_uchar::b#2 // reg byte x 5501.0
void print_uint(unsigned int w)
unsigned int print_uint::w
unsigned int print_uint::w#0 // w zp[2]:2 701.0
unsigned int rand()
unsigned int rand::$0 // zp[2]:2 2000002.0
unsigned int rand::$1 // zp[2]:4 2000002.0
unsigned int rand::$2 // zp[2]:6 2000002.0
unsigned int rand::return
unsigned int rand::return#0 // return zp[2]:8 366667.3333333334
unsigned int rand::return#2 // return zp[2]:8 200002.0
__loadstore volatile unsigned int rand_state // zp[2]:14 277778.1111111111
__constant const char sinetable[$100] = { $80, $7d, $7a, $77, $74, $70, $6d, $6a, $67, $64, $61, $5e, $5b, $58, $55, $52, $4f, $4d, $4a, $47, $44, $41, $3f, $3c, $39, $37, $34, $32, $2f, $2d, $2b, $28, $26, $24, $22, $20, $1e, $1c, $1a, $18, $16, $15, $13, $11, $10, $f, $d, $c, $b, $a, 8, 7, 6, 6, 5, 4, 3, 3, 2, 2, 2, 1, 1, 1, 1, 1, 1, 1, 2, 2, 2, 3, 3, 4, 5, 6, 6, 7, 8, $a, $b, $c, $d, $f, $10, $11, $13, $15, $16, $18, $1a, $1c, $1e, $20, $22, $24, $26, $28, $2b, $2d, $2f, $32, $34, $37, $39, $3c, $3f, $41, $44, $47, $4a, $4d, $4f, $52, $55, $58, $5b, $5e, $61, $64, $67, $6a, $6d, $70, $74, $77, $7a, $7d, $80, $83, $86, $89, $8c, $90, $93, $96, $99, $9c, $9f, $a2, $a5, $a8, $ab, $ae, $b1, $b3, $b6, $b9, $bc, $bf, $c1, $c4, $c7, $c9, $cc, $ce, $d1, $d3, $d5, $d8, $da, $dc, $de, $e0, $e2, $e4, $e6, $e8, $ea, $eb, $ed, $ef, $f0, $f1, $f3, $f4, $f5, $f6, $f8, $f9, $fa, $fa, $fb, $fc, $fd, $fd, $fe, $fe, $fe, $ff, $ff, $ff, $ff, $ff, $ff, $ff, $fe, $fe, $fe, $fd, $fd, $fc, $fb, $fa, $fa, $f9, $f8, $f6, $f5, $f4, $f3, $f1, $f0, $ef, $ed, $eb, $ea, $e8, $e6, $e4, $e2, $e0, $de, $dc, $da, $d8, $d5, $d3, $d1, $ce, $cc, $c9, $c7, $c4, $c1, $bf, $bc, $b9, $b6, $b3, $b1, $ae, $ab, $a8, $a5, $a2, $9f, $9c, $99, $96, $93, $90, $8c, $89, $86, $83 }
void start()
__constant unsigned int * const start::LAST_TIME = &last_time
__constant char xbuf[$28] = { fill( $28, 0) }
__constant char ybuf[$19] = { fill( $19, 0) }

reg byte x [ makechar::ii#3 makechar::ii#2 ]
reg byte y [ makechar::b#3 makechar::b#7 makechar::b#2 ]
zp[1]:13 [ doplasma::ii#3 doplasma::ii#2 makechar::i#3 makechar::i#2 ]
zp[1]:16 [ doplasma::i#3 doplasma::i#2 ]
zp[1]:21 [ doplasma::c2a#3 doplasma::c2a#2 ]
zp[1]:19 [ doplasma::c2b#3 doplasma::c2b#2 ]
reg byte x [ doplasma::jj#3 doplasma::jj#2 ]
zp[2]:11 [ doplasma::scrn#6 doplasma::scrn#0 doplasma::scrn#13 makechar::c#3 makechar::c#2 ]
reg byte y [ doplasma::j#3 doplasma::j#2 ]
zp[2]:22 [ print_line_cursor#9 print_line_cursor#0 main::count#2 main::count#1 ]
reg byte x [ print_uchar::b#2 print_uchar::b#0 print_uchar::b#1 ]
reg byte a [ print_char::ch#2 print_char::ch#0 print_char::ch#1 ]
zp[2]:14 [ rand_state ]
zp[2]:24 [ last_time ]
zp[1]:26 [ main::block#1 ]
reg byte a [ main::tmp#1 ]
zp[1]:27 [ main::v#1 ]
reg byte x [ makechar::$9 ]
zp[1]:20 [ makechar::s#1 doplasma::c1a#3 doplasma::c1a#2 ]
zp[2]:17 [ makechar::$7 makechar::$8 makechar::$10 print_char_cursor#26 print_char_cursor#37 print_char_cursor#27 ]
zp[1]:10 [ makechar::$4 doplasma::c1b#3 doplasma::c1b#2 ]
zp[2]:8 [ Ticks#0 rand::return#2 makechar::$3 rand::return#0 ]
reg byte a [ doplasma::$6 ]
reg byte a [ doplasma::$3 ]
reg byte a [ doplasma::$1 ]
zp[2]:2 [ rand::$0 Ticks#1 print_uint::w#0 ]
zp[2]:4 [ rand::$1 ]
zp[2]:6 [ rand::$2 ]
reg byte a [ print_uchar::$0 ]
reg byte x [ print_uchar::$2 ]
