__constant char * const BG_COLOR = (char *) 53280
__constant const char BLACK = 0
__constant char * const CIA1_INTERRUPT = (char *) 56333
__constant const char CIA_INTERRUPT_CLEAR_ALL = $7f
__constant char * const IRQ_ENABLE = (char *) 53274
__constant const char IRQ_RASTER = 1
__constant char * const IRQ_STATUS = (char *) 53273
__constant void (** const KERNEL_IRQ)() = (void (**)()) 788
__constant char * const RASTER = (char *) 53266
__constant char * const VICII_CONTROL1 = (char *) 53265
__constant const char WHITE = 1
__interrupt(rom_sys_c64) void irq()
void main()

